//挑選可用的稅別碼,在表頭使用

var retObj = new Object();

switch(thisItem.getType()){
    
    case "In_Employee_Payment":
        if(thisItem.getProperty("in_company","") === ""){
            retObj["in_code"] = {filterValue:"N/A",isFilterFixed:true};
            alert(this.getInnovator().applyMethod("In_Translate","<text>請先選擇公司別</text>").getResult());
        }else{
            retObj["in_code"] = {filterValue:"P*",isFilterFixed:true};
        }
    break;
    
    case "In_Invoice":
        if(thisItem.getProperty("in_customer","") === ""){
            retObj["in_code"] = {filterValue:"N/A",isFilterFixed:true};
            
            alert(inn.applyMethod("In_Translate","<text>請先選擇客戶代號</text>").getResult());
        }else{
            retObj["in_code"] = {filterValue:"S*",isFilterFixed:true};
        }
    break;
        
    case "In_Vendor_Payment":
        if(thisItem.getProperty("in_vendor","") === ""){
            retObj["in_code"] = {filterValue:"N/A",isFilterFixed:true};
            alert(inn.applyMethod("In_Translate","<text>請先選擇廠商</text>").getResult());
        }else{
            retObj["in_code"] = {filterValue:"P*",isFilterFixed:true};
        }
    break;
        
    case "in_contract":
        
        switch(thisItem.getProperty("classification","")){
            
            case "客戶":
                if(thisItem.getProperty("in_customer","") === ""){
                    retObj["in_code"] = {filterValue:"N/A",isFilterFixed:true};
                    
                    alert(inn.applyMethod("In_Translate","<text>請先選擇客戶代號</text>").getResult());
                }else{
                    retObj["in_code"] = {filterValue:"S*",isFilterFixed:true};
                }
            break;
                
            case "廠商":
                if(thisItem.getProperty("in_vendor","") === ""){
                    retObj["in_code"] = {filterValue:"N/A",isFilterFixed:true};
                    
                    alert(inn.applyMethod("In_Translate","<text>請先選擇供應商</text>").getResult());
                }else{
                    retObj["in_code"] = {filterValue:"P*",isFilterFixed:true};
                }
            break;
            }
    break;
            
    case "Vendor":
        if(thisItem.getProperty("in_company","") === ""){
            retObj["in_code"] = {filterValue:"N/A",isFilterFixed:true};
            alert(this.getInnovator().applyMethod("In_Translate","<text>請先選擇公司別</text>").getResult());
        }else{
            retObj["in_code"] = {filterValue:"P*",isFilterFixed:true};
        }
    break;
    
    case "Customer":
        if(thisItem.getProperty("in_company","") === ""){
            retObj["in_code"] = {filterValue:"N/A",isFilterFixed:true};
            alert(this.getInnovator().applyMethod("In_Translate","<text>請先選擇公司別</text>").getResult());
        }else{
            retObj["in_code"] = {filterValue:"S*",isFilterFixed:true};
        }
    break;
}

return retObj;
#innosoft#
<AML>
<Item type='Method' where="[Method].[Name]='In_cfgPickTaxCode' and [Method].is_current='1'">
<config_id>AA46C98C0523489E8B0625BCE14F0D77</config_id>
<name>In_cfgPickTaxCode</name>
<comments></comments>
<in_ver></in_ver>
<in_ver_note></in_ver_note>
<method_type>JavaScript</method_type>
</Item>
</AML>
